[
  {
    "id":1234,
    "description": "account from bank",
    "number":"051849529595"
  },
   {
    "id":12222,
    "description": "account bank of china",
    "number":"5895480000"
  },
   {
    "id":13333,
    "description": "account bank of Wakanda",
    "number":"051000849529595"
  }
]